module simplechaincode1/src/simplechaincode

go 1.16

require (
	github.com/gogo/protobuf v1.2.1 // indirect
	github.com/golang/protobuf v1.3.2
	github.com/google/uuid v1.1.1 // indirect
	github.com/hyperledger/fabric-chaincode-go v0.0.0-20200424173110-d7076418f212
	github.com/hyperledger/fabric-contract-api-go v1.1.0
	github.com/hyperledger/fabric-protos-go v0.0.0-20200424173316-dd554ba3746e
	github.com/leekchan/accounting v1.0.0
	golang.org/x/sys v0.0.0-20190813064441-fde4db37ae7a // indirect
	google.golang.org/genproto v0.0.0-20190819201941-24fa4b261c55 // indirect
)
